使用tidyverse处理眼动数据
…
## See spec(...) for full column specifications.

在这里，我使用的是readr包里的read_csv函数，与base包里的read.csv函数相比，这个函数的速度更快。运行完之后，可以看到很多信息。这不是错误，也不是警告，只是告知我们每一列数据被解析成了什么类型，如果有那一列的数据类型不是我们所预期的，我们可以即时发现并作出更改。另外，通过readr包所导入的数据会自动的转成tibble格式。

对于tidyverse中的每一个核心包，Tidyverse网站中都有相应的介绍。

数据清洗

tibble格式相较于data.frame格式的优势在于，默认情况下只显示前10行数据，并会显示数据的行数与列数以及每一列的数据类型，这样就无需额外使用str等函数来查看相关的信息。

通过直接输入数据名，我们来看一下这个数据：

dl

## # A tibble: 13,147 x 30
##    Trial  Subject Color  Stimulus `Area of Intere~ `AOI Group` `AOI Scope`
##    <chr>  <chr>   <chr>  <chr>    <chr>            <chr>       <chr>      
##  1 Trial~ P01     Coral  1d1.jpg  AOI 003          <NA>        Local      
##  2 Trial~ lhj     Cornf~ 1d1.jpg  AOI 003          <NA>        Local      
##  3 Trial~ xyn     Crims~ 1d1.jpg  AOI 003          <NA>        Local      
##  4 Trial~ WCF     Cyan   1d1.jpg  AOI 003          <NA>        Local      
##  5 Trial~ YYH     DarkB~ 1d1.jpg  AOI 003          <NA>        Local      
##  6 Trial~ CBL     DarkC~ 1d1.jpg  AOI 003          <NA>        Local      
##  7 Trial~ MJC     DarkG~ 1d1.jpg  AOI 003          <NA>        Local      
##  8 Trial~ FZL     DarkG~ 1d1.jpg  AOI 003          <NA>        Local      
##  9 Trial~ XC (1)  DarkK~ 1d1.jpg  AOI 003          <NA>        Local      
## 10 Trial~ WW      DarkM~ 1d1.jpg  AOI 003          <NA>        Local      
## # ... with 13,137 more rows, and 23 more variables: `AOI Order` <int>,
## #   `AOI Size [px]` <int>, `AOI Coverage [%]` <dbl>, `Start Time
## #   [ms]` <int>, `End Time [ms]` <int>, `Entry Time [ms]` <chr>,
## #   Sequence <chr>, `Net Dwell Time [ms]` <dbl>, `Dwell Time [ms]` <dbl>,
## #   `Glance Duration [ms]` <dbl>, `Diversion Duration [ms]` <dbl>, `First
## #   Fixation Duration [ms]` <dbl>, `Glances Count` <int>, Revisits <chr>,
## #   `Fixation Count` <int>, `Appearance Count` <int>, `Visible Time
## #   [ms]` <dbl>, `Visible Time [%]` <int>, `Net Dwell Time [%]` <dbl>,
## #   `Dwell Time [%]` <dbl>, `Fixation Time [ms]` <dbl>, `Fixation Time
…
前两条原则很好理解，就是每种变量（如被试编号、性别、年龄、实验条件、反应时、正确率等）形成一列，每个观测（如性别×组别两因素实验中，控制组男被试在某试次下的一个因变量数据）形成一行。对于第三条原则，在查阅了相应的文档之后，我认为它是指一个表格里只能放一种因变量。关于Tidy Data的详细内容，可在前面提到的tidyverse网站中找到，也可以在R中通过tidyr包找到相应的文档。R里面的大部分分析都要求数据满足Tidy Data格式，当然，这也不是绝对的，比如t检验，满足与不满足均可。

根据Tidy Data的第三条原则，我这次分析只选择了总注视时间这一个眼动指标。此外，我还选择了试次编号、被试名、刺激物以及兴趣区四列。在对列进行选择时，要用到dplyr包中的select函数。此时的代码如下：

dl <- read_csv("dl.csv") %>% 
  select(trial = 1, sub = 2, stimuli = 4, aoi = 5, net_dt = 15)

在这里，我用到了管道操作符%>%。它的作用是将其左边操作所生成的数据传递到其右边函数的第一个参数位置上（通过某种操作也可传递到其他位置上），其快捷键是Ctrl+Shift+M（另外，赋值符<-的快捷键是Alt+-）。使用管道操作符，可以在保证代码具有条理性的前提之下，减少中间变量的命名（给中间变量起名是一件非常耗时的事情）与重复输入。因为tidyverse包函数中第一个参数位置上一般都是数据名，所以管道操作符可以很好地与tidyverse搭配使用。管道操作符属于magrittr包，但载入tidyverse包会将其自动载入。管道操作符并不是只有这一种，若想进一步了解管道操作符，请看Pipes in R Tutorial For Beginners。另外，pipeR包也提供了一系列管道操作符，非常实用，其作者是之前提到的任坤。

tidyverse有一个原则，即每个函数只做一件事情（忘了在哪里看到的了）。但是select函数就违背了这一原则，因为它至少可以做三件事情。一是对列进行选择，二是对所选择的列进行重命名，三是对所选择的列进行排序。在上面的代码中，我从原始数据中选择了5列，并重新给变量命了名，这时的数据是这样的：

dl

## # A tibble: 13,147 x 5
##    trial    sub    stimuli aoi     net_dt
##    <chr>    <chr>  <chr>   <chr>    <dbl>
##  1 Trial048 P01    1d1.jpg AOI 003      0
##  2 Trial050 lhj    1d1.jpg AOI 003   2236
##  3 Trial041 xyn    1d1.jpg AOI 003    619
##  4 Trial041 WCF    1d1.jpg AOI 003   1036
##  5 Trial041 YYH    1d1.jpg AOI 003    988
##  6 Trial041 CBL    1d1.jpg AOI 003    336
##  7 Trial042 MJC    1d1.jpg AOI 003   1168
##  8 Trial041 FZL    1d1.jpg AOI 003   1024
##  9 Trial041 XC (1) 1d1.jpg AOI 003    721
## 10 Trial041 WW     1d1.jpg AOI 003   1152
## # ... with 13,137 more rows
…
unique(dl$aoi)

## [1] "AOI 003"     "AOI 002"     "AOI 001"     "White Space"

可以看到，一共有3个兴趣区以及一个“White Space”。当被试看到“white Space”时，数据是无效的，因此要清理掉。在针对行进行清理时，要用到dplyr包中的filter函数，它可以根据相应的条件，剔除某些行。此时的代码如下：

dl <- read_csv("dl.csv") %>%
  select(trial = 1, sub = 2, stimuli = 4, aoi = 5, net_dt = 15) %>%
  filter(aoi != "White Space")

filter函数在这里的作用是将aoi变量中不是(!)”White Space“的行保留下来。此时的数据是这样的，可以看到，在剔除了一部分无用数据之后，行数已经从13000多行减少到了9000多行：

dl

## # A tibble: 9,391 x 5
##    trial    sub    stimuli aoi     net_dt
##    <chr>    <chr>  <chr>   <chr>    <dbl>
##  1 Trial048 P01    1d1.jpg AOI 003      0
##  2 Trial050 lhj    1d1.jpg AOI 003   2236
##  3 Trial041 xyn    1d1.jpg AOI 003    619
##  4 Trial041 WCF    1d1.jpg AOI 003   1036
##  5 Trial041 YYH    1d1.jpg AOI 003    988
##  6 Trial041 CBL    1d1.jpg AOI 003    336
##  7 Trial042 MJC    1d1.jpg AOI 003   1168
##  8 Trial041 FZL    1d1.jpg AOI 003   1024
##  9 Trial041 XC (1) 1d1.jpg AOI 003    721
## 10 Trial041 WW     1d1.jpg AOI 003   1152
## # ... with 9,381 more rows
…
这里用到了%in%函数，这是一个用来匹配的函数，其用法可在R中输入?match查看。举个简单的例子，当输入：

1:10 %in% 1:3

##  [1]  TRUE  TRUE  TRUE FALSE FALSE FALSE FALSE FALSE FALSE FALSE

时，可以看到前3个值返回了TRUE，而后面都是FALSE，因为左边数据中只有前3个元素与右边匹配。在之前的代码中，我将sub列与sub_pre进行匹配，随后又使用逻辑非(!)反向选择，进而剔除了预实验被试。此时数据如下，可以看到行数进一步减少到了8000多行：

dl

## # A tibble: 8,401 x 5
##    trial    sub   stimuli aoi     net_dt
##    <chr>    <chr> <chr>   <chr>    <dbl>
##  1 Trial007 gyx   1d1.jpg AOI 003  288  
##  2 Trial047 gyx   1d1.jpg AOI 003  959  
##  3 Trial007 CJY   1d1.jpg AOI 003  480  
##  4 Trial047 CJY   1d1.jpg AOI 003  840  
##  5 Trial007 CY    1d1.jpg AOI 003  432  
##  6 Trial048 CY    1d1.jpg AOI 003 1056  
##  7 Trial008 CXM   1d1.jpg AOI 003  792  
##  8 Trial051 CXM   1d1.jpg AOI 003 1548  
##  9 Trial007 ZA    1d1.jpg AOI 003   48.0
## 10 Trial047 ZA    1d1.jpg AOI 003 1096  
## # ... with 8,391 more rows
…
实验1中因素1有3个水平（1，2，3），因素2有2个水平（d，g）；实验2中因素1有3个水平（1，2，3），因素2有6个水平（s1，s2，s3，s4，s5，s6）。后面的“.jpg“以及前面的1位数字（包括”_“）都是没有用的信息，可以去掉。这里要用到dplyr包中的mutate函数（用来在已有变量的基础上生成新变量或改写已有变量）和stringr包中的str_replace函数（用来替换），以及一点点正则表达式的知识。关于正则表达式相关内容，可以通过在R中输入?regex进行查看。此时的代码如下：

dl <- read_csv("dl.csv") %>%
  select(trial = 1, sub = 2, stimuli = 4, aoi = 5, net_dt = 15) %>%
  filter(aoi != "White Space") %>%
  filter(!sub %in% sub_pre) %>%
  mutate(stimuli = str_replace(stimuli, "\\d_{0,}.jpg", ""))

这一行代码的意思是指针对stimuli列，用“”替换符合“\\d_{0,}.jpg”这一表达式的内容（其中“\\d”用来匹配数字，“_{0,}”用来匹配0个或多个“_”），因为“”中没有任何东西，其作用就是删除。替换之后，覆盖之前的stimuli列。此时数据及stimuli列中的元素如下：

dl

## # A tibble: 8,401 x 5
##    trial    sub   stimuli aoi     net_dt
##    <chr>    <chr> <chr>   <chr>    <dbl>
##  1 Trial007 gyx   1d      AOI 003  288  
##  2 Trial047 gyx   1d      AOI 003  959  
##  3 Trial007 CJY   1d      AOI 003  480  
##  4 Trial047 CJY   1d      AOI 003  840  
##  5 Trial007 CY    1d      AOI 003  432  
##  6 Trial048 CY    1d      AOI 003 1056  
##  7 Trial008 CXM   1d      AOI 003  792  
##  8 Trial051 CXM   1d      AOI 003 1548  
##  9 Trial007 ZA    1d      AOI 003   48.0
## 10 Trial047 ZA    1d      AOI 003 1096  
## # ... with 8,391 more rows
…
虽然两个实验的数据混在了一起，但幸运的是两个实验的条件1的水平都是一位数字，这时可以通过使用tidyr包中的separate函数轻松地将两个自变量分离开来。此时的代码如下：

dl <- read_csv("dl.csv") %>%
  select(trial = 1, sub = 2, stimuli = 4, aoi = 5, net_dt = 15) %>%
  filter(aoi != "White Space") %>%
  filter(!sub %in% sub_pre) %>%
  mutate(stimuli = str_replace(stimuli, "\\d_{0,}.jpg", "")) %>%
  separate(stimuli, c("number", "word"), sep = 1)

通过这一行代码的操作，原先的stimuli列分离成了number和word两个新列。

dl

## # A tibble: 8,401 x 6
##    trial    sub   number word  aoi     net_dt
##    <chr>    <chr> <chr>  <chr> <chr>    <dbl>
##  1 Trial007 gyx   1      d     AOI 003  288  
##  2 Trial047 gyx   1      d     AOI 003  959  
##  3 Trial007 CJY   1      d     AOI 003  480  
##  4 Trial047 CJY   1      d     AOI 003  840  
##  5 Trial007 CY    1      d     AOI 003  432  
##  6 Trial048 CY    1      d     AOI 003 1056  
##  7 Trial008 CXM   1      d     AOI 003  792  
##  8 Trial051 CXM   1      d     AOI 003 1548  
##  9 Trial007 ZA    1      d     AOI 003   48.0
## 10 Trial047 ZA    1      d     AOI 003 1096  
## # ... with 8,391 more rows
…
dl <- read_csv("dl.csv") %>%
  select(trial = 1, sub = 2, stimuli = 4, aoi = 5, net_dt = 15) %>%
  filter(aoi != "White Space") %>%
  filter(!sub %in% sub_pre) %>%
  mutate(stimuli = str_replace(stimuli, "\\d_{0,}.jpg", "")) %>%
  separate(stimuli, c("number", "word"), sep = 1) %>%
  arrange(sub, trial) %>%
  select(2, 1, 3, 4, 6)

结果如下：

dl

## # A tibble: 8,401 x 5
##    sub   trial    number word  net_dt
##    <chr> <chr>    <chr>  <chr>  <dbl>
##  1 AYQ   Trial003 3      s6      1976
##  2 AYQ   Trial003 3      s6      1324
##  3 AYQ   Trial004 2      d        168
##  4 AYQ   Trial004 2      d       2520
##  5 AYQ   Trial004 2      d       1768
##  6 AYQ   Trial005 1      s1      2324
##  7 AYQ   Trial005 1      s1      1316
##  8 AYQ   Trial006 3      d          0
##  9 AYQ   Trial006 3      d       1628
## 10 AYQ   Trial006 3      d        988
## # ... with 8,391 more rows
…
结果如下：

dl

## # A tibble: 1,128 x 4
## # Groups:   sub, number [?]
##    sub   number word  mean_ndt
##    <chr> <chr>  <chr>    <dbl>
##  1 AYQ   1      d         1168
##  2 AYQ   1      g         1254
##  3 AYQ   1      s1        1820
##  4 AYQ   1      s2        1916
##  5 AYQ   1      s3        1532
##  6 AYQ   1      s4        1620
##  7 AYQ   1      s5        1220
##  8 AYQ   1      s6        1438
##  9 AYQ   2      d         1111
## 10 AYQ   2      g         1716
## # ... with 1,118 more rows
…
这里再一次用到了filter和%in%的组合。如果要把实验2的数据筛选出来，只需要在word之前加上一个!即可。这时数据清洗的工作已基本完成，数据已经完全符合Tidy Data的格式：

dl

## # A tibble: 282 x 4
## # Groups:   sub, number [141]
##    sub   number word  mean_ndt
##    <chr> <chr>  <chr>    <dbl>
##  1 AYQ   1      d         1168
##  2 AYQ   1      g         1254
##  3 AYQ   2      d         1111
##  4 AYQ   2      g         1716
##  5 AYQ   3      d         1060
##  6 AYQ   3      g         1326
##  7 CJY   1      d         1074
##  8 CJY   1      g         1304
##  9 CJY   2      d         1205
## 10 CJY   2      g         1708
## # ... with 272 more rows
…
